{
    "[json]": {
        "editor.tabSize": 2
    },
    "[typescript]": {
        "editor.tabSize": 2
    }, 
    "[html]": {
        "editor.tabSize": 2
    },
    "[javascript]": {
        "editor.tabSize": 2
    },
    "[css]": {
        "editor.tabSize": 2
    },
    "[less]": {
        "editor.tabSize": 2
    },
    "[sass]": {
        "editor.tabSize": 2
    },
    "workbench.iconTheme": "material-icon-theme",
    "workbench.colorCustomizations": {
        "editorRuler.foreground": "#8a8a8a"
    },
    "explorer.confirmDelete": false,
    "files.exclude": {
        "**/__pycache__": true,
        "**/env": true,
        "**/node_modules": true,
        "**/.classpath": true,
        "**/.project": true,
        "**/.settings": true,
        "**/.factorypath": true
    },
    "editor.rulers": [80, 120],
    "terminal.integrated.fontFamily": "Menlo for Powerline",
    "terminal.integrated.fontSize": 23,
    "editor.minimap.enabled": false,
    "explorer.confirmDragAndDrop": false,
    "python.jediEnabled": false,
    "python.pythonPath": "~/anaconda3/bin/python",
    "python.linting.pylintEnabled": true,
    "material-icon-theme.activeIconPack": "react_redux",
    "editor.fontWeight": "400",
    "editor.fontLigatures": true,
    "editor.fontSize": 23,
    "editor.fontFamily": "Fira Code",
    "markdown.preview.fontSize": 23,
    "liveServer.settings.donotShowInfoMsg": true,
    "javascript.updateImportsOnFileMove.enabled": "always"
}
